[
  {
    "id": 10,
    "name": "Pasta",
    "price": 11.93,
    "discount_price": 0,
    "description": "Delectus vel enim fugit veniam nostrum aut. Ipsam dolores consequatur est aut nostrum veritatis iure. Accusamus reiciendis porro quo a et et doloremque eos.",
    "capacity": 446.08,
    "package_items_count": 5,
    "unit": "g",
    "featured": false,
    "deliverable": true,
    "market_id": 1,
    "category_id": 5,
    "created_at": "2020-04-12 16:51:00",
    "updated_at": "2020-04-12 16:51:00",
    "custom_fields": [],
    "has_media": true,
    "market": {
      "id": 1,
      "name": "Jaya Grocers PJ",
      "delivery_fee": 3.85,
      "address": "392 Giovanny PineGorczanybury, CO 13600-6178",
      "phone": "674-873-6439 x071",
      "default_tax": 7.08,
      "custom_fields": [],
      "has_media": false,
      "rate": "3.0",
      "media": []
    },
    "category": {
      "id": 5,
      "name": "Foods",
      "description": "Debitis et qui est ut ab. Quos et ad sunt quo pariatur et sequi aliquam. Possimus quaerat praesentium sint temporibus omnis inventore fugiat. Voluptatem quas aspernatur neque totam expedita. Omnis ipsa similique est eligendi dolores officia.",
      "created_at": "2020-04-12 16:50:59",
      "updated_at": "2020-04-12 16:50:59",
      "custom_fields": [],
      "has_media": true,
      "media": [
        {
          "id": 66,
          "model_type": "App\\Models\\Category",
          "model_id": 5,
          "collection_name": "image",
          "name": "grocery",
          "file_name": "grocery.svg",
          "mime_type": "image\/svg+xml",
          "disk": "public",
          "size": 5296,
          "manipulations": [],
          "custom_properties": {
            "uuid": "fe2e8a47-54cb-4b8e-91c5-1de80074f7c1"
          },
          "responsive_images": [],
          "order_column": 66,
          "created_at": "2020-04-15 14:20:07",
          "updated_at": "2020-04-15 14:20:07",
          "url": "https:\/\/markets.smartersvision.com\/storage\/app\/public\/66\/grocery.svg",
          "thumb": "https:\/\/markets.smartersvision.com\/images\/icons\/svg.png",
          "icon": "https:\/\/markets.smartersvision.com\/images\/icons\/svg.png",
          "formated_size": "5.2 KB"
        }
      ]
    },
    "options": [
      {
        "id": 1,
        "name": "1Kg",
        "description": "Vel architecto fugiat iste quam.",
        "price": 15.03,
        "product_id": 10,
        "option_group_id": 4,
        "created_at": "2020-04-12 16:51:06",
        "updated_at": "2020-04-12 16:51:06",
        "custom_fields": [],
        "has_media": false,
        "media": []
      },
      {
        "id": 14,
        "name": "S",
        "description": "Aliquid vel officia at sed.",
        "price": 29.62,
        "product_id": 10,
        "option_group_id": 4,
        "created_at": "2020-04-12 16:51:06",
        "updated_at": "2020-04-12 16:51:06",
        "custom_fields": [],
        "has_media": false,
        "media": []
      },
      {
        "id": 21,
        "name": "L",
        "description": "Non quis qui et est.",
        "price": 17.72,
        "product_id": 10,
        "option_group_id": 2,
        "created_at": "2020-04-12 16:51:06",
        "updated_at": "2020-04-12 16:51:06",
        "custom_fields": [],
        "has_media": false,
        "media": []
      },
      {
        "id": 34,
        "name": "XL",
        "description": "Voluptatibus qui eius dolorem sapiente.",
        "price": 36.86,
        "product_id": 10,
        "option_group_id": 3,
        "created_at": "2020-04-12 16:51:06",
        "updated_at": "2020-04-12 16:51:06",
        "custom_fields": [],
        "has_media": false,
        "media": []
      },
      {
        "id": 40,
        "name": "2L",
        "description": "Facere in aliquid adipisci quasi velit.",
        "price": 45.74,
        "product_id": 10,
        "option_group_id": 1,
        "created_at": "2020-04-12 16:51:06",
        "updated_at": "2020-04-12 16:51:06",
        "custom_fields": [],
        "has_media": false,
        "media": []
      },
      {
        "id": 52,
        "name": "S",
        "description": "Est ad id placeat consequuntur est.",
        "price": 24.48,
        "product_id": 10,
        "option_group_id": 4,
        "created_at": "2020-04-12 16:51:06",
        "updated_at": "2020-04-12 16:51:06",
        "custom_fields": [],
        "has_media": false,
        "media": []
      },
      {
        "id": 66,
        "name": "White",
        "description": "Non placeat necessitatibus deserunt distinctio.",
        "price": 21.91,
        "product_id": 10,
        "option_group_id": 1,
        "created_at": "2020-04-12 16:51:07",
        "updated_at": "2020-04-12 16:51:07",
        "custom_fields": [],
        "has_media": false,
        "media": []
      }
    ],
    "product_reviews": [],
    "media": [
      {
        "id": 132,
        "model_type": "App\\Models\\Product",
        "model_id": 10,
        "collection_name": "image",
        "name": "products (26)",
        "file_name": "products-(26).jpg",
        "mime_type": "image\/jpeg",
        "disk": "public",
        "size": 160146,
        "manipulations": [],
        "custom_properties": {
          "uuid": "c81f680d-b98e-44a5-99aa-fe9d37d1e02e",
          "generated_conversions": {
            "thumb": true,
            "icon": true
          }
        },
        "responsive_images": [],
        "order_column": 132,
        "created_at": "2020-04-15 14:27:58",
        "updated_at": "2020-04-15 14:27:58",
        "url": "https:\/\/markets.smartersvision.com\/storage\/app\/public\/132\/products-%2826%29.jpg",
        "thumb": "https:\/\/markets.smartersvision.com\/storage\/app\/public\/132\/conversions\/products-%2826%29-thumb.jpg",
        "icon": "https:\/\/markets.smartersvision.com\/storage\/app\/public\/132\/conversions\/products-%2826%29-icon.jpg",
        "formated_size": "156.4 KB"
      }
    ]
  },
  {
    "id": 36,
    "name": "Rice",
    "price": 15.51,
    "discount_price": 6.1,
    "description": "Molestiae nesciunt quo autem. Minus inventore eos adipisci hic excepturi. Possimus qui nemo sed enim repellat voluptatum.",
    "capacity": 322.69,
    "package_items_count": 3,
    "unit": "L",
    "featured": true,
    "deliverable": true,
    "market_id": 1,
    "category_id": 5,
    "created_at": "2020-04-12 16:51:02",
    "updated_at": "2021-05-06 21:55:49",
    "custom_fields": [],
    "has_media": true,
    "market": {
      "id": 1,
      "name": "Jaya Grocers PJ",
      "delivery_fee": 3.85,
      "address": "392 Giovanny PineGorczanybury, CO 13600-6178",
      "phone": "674-873-6439 x071",
      "default_tax": 7.08,
      "custom_fields": [],
      "has_media": false,
      "rate": "3.0",
      "media": []
    },
    "category": {
      "id": 5,
      "name": "Foods",
      "description": "Debitis et qui est ut ab. Quos et ad sunt quo pariatur et sequi aliquam. Possimus quaerat praesentium sint temporibus omnis inventore fugiat. Voluptatem quas aspernatur neque totam expedita. Omnis ipsa similique est eligendi dolores officia.",
      "created_at": "2020-04-12 16:50:59",
      "updated_at": "2020-04-12 16:50:59",
      "custom_fields": [],
      "has_media": true,
      "media": [
        {
          "id": 66,
          "model_type": "App\\Models\\Category",
          "model_id": 5,
          "collection_name": "image",
          "name": "grocery",
          "file_name": "grocery.svg",
          "mime_type": "image\/svg+xml",
          "disk": "public",
          "size": 5296,
          "manipulations": [],
          "custom_properties": {
            "uuid": "fe2e8a47-54cb-4b8e-91c5-1de80074f7c1"
          },
          "responsive_images": [],
          "order_column": 66,
          "created_at": "2020-04-15 14:20:07",
          "updated_at": "2020-04-15 14:20:07",
          "url": "https:\/\/markets.smartersvision.com\/storage\/app\/public\/66\/grocery.svg",
          "thumb": "https:\/\/markets.smartersvision.com\/images\/icons\/svg.png",
          "icon": "https:\/\/markets.smartersvision.com\/images\/icons\/svg.png",
          "formated_size": "5.2 KB"
        }
      ]
    },
    "options": [],
    "product_reviews": [],
    "media": [
      {
        "id": 90,
        "model_type": "App\\Models\\Product",
        "model_id": 36,
        "collection_name": "image",
        "name": "products (1)",
        "file_name": "products-(1).jpg",
        "mime_type": "image\/jpeg",
        "disk": "public",
        "size": 400798,
        "manipulations": [],
        "custom_properties": {
          "uuid": "399bfc68-1bbd-4f8c-a5e4-d6e3e269117c",
          "generated_conversions": {
            "thumb": true,
            "icon": true
          }
        },
        "responsive_images": [],
        "order_column": 90,
        "created_at": "2020-04-15 14:26:13",
        "updated_at": "2020-04-15 14:26:13",
        "url": "https:\/\/markets.smartersvision.com\/storage\/app\/public\/90\/products-%281%29.jpg",
        "thumb": "https:\/\/markets.smartersvision.com\/storage\/app\/public\/90\/conversions\/products-%281%29-thumb.jpg",
        "icon": "https:\/\/markets.smartersvision.com\/storage\/app\/public\/90\/conversions\/products-%281%29-icon.jpg",
        "formated_size": "391.4 KB"
      }
    ]
  },
  {
    "id": 19,
    "name": "Eggs",
    "price": 40.76,
    "discount_price": 0,
    "description": "Adipisci velit dolorum aut ea consequatur voluptatem. Accusantium id facere dolor dolore cum. Amet voluptatem sed omnis quia soluta cum harum. Illo sed sapiente maxime sunt.",
    "capacity": 292.02,
    "package_items_count": 3,
    "unit": "g",
    "featured": true,
    "deliverable": true,
    "market_id": 2,
    "category_id": 5,
    "created_at": "2020-04-12 16:51:01",
    "updated_at": "2020-04-12 16:51:01",
    "custom_fields": [],
    "has_media": true,
    "market": {
      "id": 2,
      "name": "Grocery Towne LLC",
      "delivery_fee": 1.04,
      "address": "537 Batz ForgesGibsonburgh, DE 74012",
      "phone": "307.782.2121 x34984",
      "default_tax": 13.88,
      "custom_fields": [],
      "has_media": true,
      "rate": "2.5",
      "media": [
        {
          "id": 4,
          "model_type": "App\\Models\\Market",
          "model_id": 2,
          "collection_name": "image",
          "name": "markets (6)",
          "file_name": "markets-(6).jpg",
          "mime_type": "image\/jpeg",
          "disk": "public",
          "size": 1261661,
          "manipulations": [],
          "custom_properties": {
            "uuid": "1861f47e-3e7d-4ca1-9011-abcad0cac994",
            "generated_conversions": {
              "thumb": true,
              "icon": true
            }
          },
          "responsive_images": [],
          "order_column": 4,
          "created_at": "2020-04-15 14:08:20",
          "updated_at": "2020-04-15 14:08:20",
          "url": "https:\/\/markets.smartersvision.com\/storage\/app\/public\/4\/markets-%286%29.jpg",
          "thumb": "https:\/\/markets.smartersvision.com\/storage\/app\/public\/4\/conversions\/markets-%286%29-thumb.jpg",
          "icon": "https:\/\/markets.smartersvision.com\/storage\/app\/public\/4\/conversions\/markets-%286%29-icon.jpg",
          "formated_size": "1.2 MB"
        }
      ]
    },
    "category": {
      "id": 5,
      "name": "Foods",
      "description": "Debitis et qui est ut ab. Quos et ad sunt quo pariatur et sequi aliquam. Possimus quaerat praesentium sint temporibus omnis inventore fugiat. Voluptatem quas aspernatur neque totam expedita. Omnis ipsa similique est eligendi dolores officia.",
      "created_at": "2020-04-12 16:50:59",
      "updated_at": "2020-04-12 16:50:59",
      "custom_fields": [],
      "has_media": true,
      "media": [
        {
          "id": 66,
          "model_type": "App\\Models\\Category",
          "model_id": 5,
          "collection_name": "image",
          "name": "grocery",
          "file_name": "grocery.svg",
          "mime_type": "image\/svg+xml",
          "disk": "public",
          "size": 5296,
          "manipulations": [],
          "custom_properties": {
            "uuid": "fe2e8a47-54cb-4b8e-91c5-1de80074f7c1"
          },
          "responsive_images": [],
          "order_column": 66,
          "created_at": "2020-04-15 14:20:07",
          "updated_at": "2020-04-15 14:20:07",
          "url": "https:\/\/markets.smartersvision.com\/storage\/app\/public\/66\/grocery.svg",
          "thumb": "https:\/\/markets.smartersvision.com\/images\/icons\/svg.png",
          "icon": "https:\/\/markets.smartersvision.com\/images\/icons\/svg.png",
          "formated_size": "5.2 KB"
        }
      ]
    },
    "options": [
      {
        "id": 10,
        "name": "S",
        "description": "Sit quos aliquid ducimus.",
        "price": 44.04,
        "product_id": 19,
        "option_group_id": 1,
        "created_at": "2020-04-12 16:51:06",
        "updated_at": "2020-04-12 16:51:06",
        "custom_fields": [],
        "has_media": false,
        "media": []
      },
      {
        "id": 30,
        "name": "5L",
        "description": "Magnam recusandae mollitia quia et.",
        "price": 18.99,
        "product_id": 19,
        "option_group_id": 3,
        "created_at": "2020-04-12 16:51:06",
        "updated_at": "2020-04-12 16:51:06",
        "custom_fields": [],
        "has_media": false,
        "media": []
      }
    ],
    "product_reviews": [
      {
        "id": 4,
        "review": null,
        "rate": 5,
        "user_id": 3,
        "product_id": 19,
        "created_at": "2020-04-12 16:51:04",
        "updated_at": "2021-05-07 04:36:38",
        "custom_fields": []
      },
      {
        "id": 6,
        "review": "Drawling, Stretching, and Fainting in Coils.' 'What was THAT like?' said Alice. 'Did you say pig, or fig?' said the King replied. Here the Queen ordering off her unfortunate guests to.",
        "rate": 5,
        "user_id": 3,
        "product_id": 19,
        "created_at": "2020-04-12 16:51:04",
        "updated_at": "2020-04-12 16:51:04",
        "custom_fields": []
      }
    ],
    "media": [
      {
        "id": 116,
        "model_type": "App\\Models\\Product",
        "model_id": 19,
        "collection_name": "image",
        "name": "products (18)",
        "file_name": "products-(18).jpg",
        "mime_type": "image\/jpeg",
        "disk": "public",
        "size": 811804,
        "manipulations": [],
        "custom_properties": {
          "uuid": "8af61c82-a3fc-479a-8b10-ce579cf2a1ed",
          "generated_conversions": {
            "thumb": true,
            "icon": true
          }
        },
        "responsive_images": [],
        "order_column": 116,
        "created_at": "2020-04-15 14:27:22",
        "updated_at": "2020-04-15 14:27:22",
        "url": "https:\/\/markets.smartersvision.com\/storage\/app\/public\/116\/products-%2818%29.jpg",
        "thumb": "https:\/\/markets.smartersvision.com\/storage\/app\/public\/116\/conversions\/products-%2818%29-thumb.jpg",
        "icon": "https:\/\/markets.smartersvision.com\/storage\/app\/public\/116\/conversions\/products-%2818%29-icon.jpg",
        "formated_size": "792.8 KB"
      }
    ]
  },
  {
    "id": 33,
    "name": "Spaghetti",
    "price": 26.62,
    "discount_price": 0,
    "description": "Vel ullam voluptatem quasi quisquam. Recusandae est repellendus quo qui distinctio fuga aut velit. Cupiditate totam facere nulla.",
    "capacity": 233.4,
    "package_items_count": 1,
    "unit": "Kg",
    "featured": true,
    "deliverable": false,
    "market_id": 2,
    "category_id": 5,
    "created_at": "2020-04-12 16:51:02",
    "updated_at": "2021-05-06 21:54:26",
    "custom_fields": [],
    "has_media": true,
    "market": {
      "id": 2,
      "name": "Grocery Towne LLC",
      "delivery_fee": 1.04,
      "address": "537 Batz ForgesGibsonburgh, DE 74012",
      "phone": "307.782.2121 x34984",
      "default_tax": 13.88,
      "custom_fields": [],
      "has_media": true,
      "rate": "2.5",
      "media": [
        {
          "id": 4,
          "model_type": "App\\Models\\Market",
          "model_id": 2,
          "collection_name": "image",
          "name": "markets (6)",
          "file_name": "markets-(6).jpg",
          "mime_type": "image\/jpeg",
          "disk": "public",
          "size": 1261661,
          "manipulations": [],
          "custom_properties": {
            "uuid": "1861f47e-3e7d-4ca1-9011-abcad0cac994",
            "generated_conversions": {
              "thumb": true,
              "icon": true
            }
          },
          "responsive_images": [],
          "order_column": 4,
          "created_at": "2020-04-15 14:08:20",
          "updated_at": "2020-04-15 14:08:20",
          "url": "https:\/\/markets.smartersvision.com\/storage\/app\/public\/4\/markets-%286%29.jpg",
          "thumb": "https:\/\/markets.smartersvision.com\/storage\/app\/public\/4\/conversions\/markets-%286%29-thumb.jpg",
          "icon": "https:\/\/markets.smartersvision.com\/storage\/app\/public\/4\/conversions\/markets-%286%29-icon.jpg",
          "formated_size": "1.2 MB"
        }
      ]
    },
    "category": {
      "id": 5,
      "name": "Foods",
      "description": "Debitis et qui est ut ab. Quos et ad sunt quo pariatur et sequi aliquam. Possimus quaerat praesentium sint temporibus omnis inventore fugiat. Voluptatem quas aspernatur neque totam expedita. Omnis ipsa similique est eligendi dolores officia.",
      "created_at": "2020-04-12 16:50:59",
      "updated_at": "2020-04-12 16:50:59",
      "custom_fields": [],
      "has_media": true,
      "media": [
        {
          "id": 66,
          "model_type": "App\\Models\\Category",
          "model_id": 5,
          "collection_name": "image",
          "name": "grocery",
          "file_name": "grocery.svg",
          "mime_type": "image\/svg+xml",
          "disk": "public",
          "size": 5296,
          "manipulations": [],
          "custom_properties": {
            "uuid": "fe2e8a47-54cb-4b8e-91c5-1de80074f7c1"
          },
          "responsive_images": [],
          "order_column": 66,
          "created_at": "2020-04-15 14:20:07",
          "updated_at": "2020-04-15 14:20:07",
          "url": "https:\/\/markets.smartersvision.com\/storage\/app\/public\/66\/grocery.svg",
          "thumb": "https:\/\/markets.smartersvision.com\/images\/icons\/svg.png",
          "icon": "https:\/\/markets.smartersvision.com\/images\/icons\/svg.png",
          "formated_size": "5.2 KB"
        }
      ]
    },
    "options": [],
    "product_reviews": [],
    "media": [
      {
        "id": 84,
        "model_type": "App\\Models\\Product",
        "model_id": 33,
        "collection_name": "image",
        "name": "products (27)",
        "file_name": "products-(27).jpg",
        "mime_type": "image\/jpeg",
        "disk": "public",
        "size": 122497,
        "manipulations": [],
        "custom_properties": {
          "uuid": "e4c6da64-de84-4ad2-9815-dd5e8d0d868b",
          "generated_conversions": {
            "thumb": true,
            "icon": true
          }
        },
        "responsive_images": [],
        "order_column": 84,
        "created_at": "2020-04-15 14:24:18",
        "updated_at": "2020-04-15 14:24:18",
        "url": "https:\/\/markets.smartersvision.com\/storage\/app\/public\/84\/products-%2827%29.jpg",
        "thumb": "https:\/\/markets.smartersvision.com\/storage\/app\/public\/84\/conversions\/products-%2827%29-thumb.jpg",
        "icon": "https:\/\/markets.smartersvision.com\/storage\/app\/public\/84\/conversions\/products-%2827%29-icon.jpg",
        "formated_size": "119.6 KB"
      }
    ]
  },
  {
    "id": 41,
    "name": "YYY",
    "price": 56,
    "discount_price": 2,
    "description": "<p>HHH<\/p>",
    "capacity": 8,
    "package_items_count": 9,
    "unit": "9",
    "featured": true,
    "deliverable": true,
    "market_id": 3,
    "category_id": 5,
    "created_at": "2021-05-06 22:06:53",
    "updated_at": "2021-05-06 22:06:53",
    "custom_fields": [],
    "has_media": true,
    "market": {
      "id": 3,
      "name": "Restoren Marquardt LLC",
      "delivery_fee": 4.49,
      "address": "5692 Johns BrookPort Casandrabury, CA 52751-4379",
      "phone": "1-831-919-4594 x9486",
      "default_tax": 8.06,
      "custom_fields": [],
      "has_media": true,
      "rate": "2.0",
      "media": [
        {
          "id": 6,
          "model_type": "App\\Models\\Market",
          "model_id": 3,
          "collection_name": "image",
          "name": "markets (15)",
          "file_name": "markets-(15).jpg",
          "mime_type": "image\/jpeg",
          "disk": "public",
          "size": 256512,
          "manipulations": [],
          "custom_properties": {
            "uuid": "c9085b63-0122-4ed6-b220-7df6395fbf22",
            "generated_conversions": {
              "thumb": true,
              "icon": true
            }
          },
          "responsive_images": [],
          "order_column": 6,
          "created_at": "2020-04-15 14:08:30",
          "updated_at": "2020-04-15 14:08:30",
          "url": "https:\/\/markets.smartersvision.com\/storage\/app\/public\/6\/markets-%2815%29.jpg",
          "thumb": "https:\/\/markets.smartersvision.com\/storage\/app\/public\/6\/conversions\/markets-%2815%29-thumb.jpg",
          "icon": "https:\/\/markets.smartersvision.com\/storage\/app\/public\/6\/conversions\/markets-%2815%29-icon.jpg",
          "formated_size": "250.5 KB"
        }
      ]
    },
    "category": {
      "id": 5,
      "name": "Foods",
      "description": "Debitis et qui est ut ab. Quos et ad sunt quo pariatur et sequi aliquam. Possimus quaerat praesentium sint temporibus omnis inventore fugiat. Voluptatem quas aspernatur neque totam expedita. Omnis ipsa similique est eligendi dolores officia.",
      "created_at": "2020-04-12 16:50:59",
      "updated_at": "2020-04-12 16:50:59",
      "custom_fields": [],
      "has_media": true,
      "media": [
        {
          "id": 66,
          "model_type": "App\\Models\\Category",
          "model_id": 5,
          "collection_name": "image",
          "name": "grocery",
          "file_name": "grocery.svg",
          "mime_type": "image\/svg+xml",
          "disk": "public",
          "size": 5296,
          "manipulations": [],
          "custom_properties": {
            "uuid": "fe2e8a47-54cb-4b8e-91c5-1de80074f7c1"
          },
          "responsive_images": [],
          "order_column": 66,
          "created_at": "2020-04-15 14:20:07",
          "updated_at": "2020-04-15 14:20:07",
          "url": "https:\/\/markets.smartersvision.com\/storage\/app\/public\/66\/grocery.svg",
          "thumb": "https:\/\/markets.smartersvision.com\/images\/icons\/svg.png",
          "icon": "https:\/\/markets.smartersvision.com\/images\/icons\/svg.png",
          "formated_size": "5.2 KB"
        }
      ]
    },
    "options": [],
    "product_reviews": [],
    "media": [
      {
        "id": 182,
        "model_type": "App\\Models\\Product",
        "model_id": 41,
        "collection_name": "image",
        "name": "profile_photo",
        "file_name": "profile_photo.jpg",
        "mime_type": "image\/jpeg",
        "disk": "public",
        "size": 5340,
        "manipulations": [],
        "custom_properties": {
          "uuid": "69c15000-0bef-4573-8e5f-ce83dc8a4860",
          "user_id": 2,
          "generated_conversions": {
            "thumb": true,
            "icon": true
          }
        },
        "responsive_images": [],
        "order_column": 179,
        "created_at": "2021-05-06 22:06:53",
        "updated_at": "2021-05-06 22:06:53",
        "url": "https:\/\/markets.smartersvision.com\/storage\/app\/public\/182\/profile_photo.jpg",
        "thumb": "https:\/\/markets.smartersvision.com\/storage\/app\/public\/182\/conversions\/profile_photo-thumb.jpg",
        "icon": "https:\/\/markets.smartersvision.com\/storage\/app\/public\/182\/conversions\/profile_photo-icon.jpg",
        "formated_size": "5.2 KB"
      }
    ]
  },
  {
    "id": 28,
    "name": "Pasta",
    "price": 39.21,
    "discount_price": 31.64,
    "description": "Et dolore id quia quos soluta incidunt delectus. Labore sit consequuntur est. Quidem est et dolore laborum incidunt accusantium.",
    "capacity": 78.04,
    "package_items_count": 2,
    "unit": "m²",
    "featured": true,
    "deliverable": true,
    "market_id": 5,
    "category_id": 1,
    "created_at": "2020-04-12 16:51:02",
    "updated_at": "2021-05-06 21:53:55",
    "custom_fields": [],
    "has_media": true,
    "market": {
      "id": 5,
      "name": "Rina's Artisan Bakery",
      "delivery_fee": 6.5,
      "address": "7414 Ward IslandNew Olaf, CO 18119",
      "phone": "+1-882-206-0154",
      "default_tax": 5.8,
      "custom_fields": [],
      "has_media": true,
      "rate": null,
      "media": [
        {
          "id": 176,
          "model_type": "App\\Models\\Market",
          "model_id": 5,
          "collection_name": "image",
          "name": "36344ca48475f863c1fe44d1c1cfab3f_M",
          "file_name": "36344ca48475f863c1fe44d1c1cfab3f_M.jpg",
          "mime_type": "image\/jpeg",
          "disk": "public",
          "size": 73768,
          "manipulations": [],
          "custom_properties": {
            "uuid": "0b9dde75-0138-47de-836e-a2f7df590190",
            "user_id": 1,
            "generated_conversions": {
              "thumb": true,
              "icon": true
            }
          },
          "responsive_images": [],
          "order_column": 173,
          "created_at": "2021-05-06 13:29:01",
          "updated_at": "2021-05-06 13:29:01",
          "url": "https:\/\/markets.smartersvision.com\/storage\/app\/public\/176\/36344ca48475f863c1fe44d1c1cfab3f_M.jpg",
          "thumb": "https:\/\/markets.smartersvision.com\/storage\/app\/public\/176\/conversions\/36344ca48475f863c1fe44d1c1cfab3f_M-thumb.jpg",
          "icon": "https:\/\/markets.smartersvision.com\/storage\/app\/public\/176\/conversions\/36344ca48475f863c1fe44d1c1cfab3f_M-icon.jpg",
          "formated_size": "72 KB"
        }
      ]
    },
    "category": {
      "id": 1,
      "name": "Medicines",
      "description": "Laborum porro rerum architecto ea optio illum. Aperiam hic dolores voluptas ut aliquam aut. Quibusdam vel quod numquam ut. Ratione numquam natus consequatur aspernatur laudantium pariatur velit. Ea voluptas et expedita eum.",
      "created_at": "2020-04-12 16:50:59",
      "updated_at": "2020-04-12 16:50:59",
      "custom_fields": [],
      "has_media": true,
      "media": [
        {
          "id": 68,
          "model_type": "App\\Models\\Category",
          "model_id": 1,
          "collection_name": "image",
          "name": "drug",
          "file_name": "drug.svg",
          "mime_type": "image\/svg+xml",
          "disk": "public",
          "size": 3396,
          "manipulations": [],
          "custom_properties": {
            "uuid": "16b9d934-339a-4fc4-9c57-2a34a91e1baa"
          },
          "responsive_images": [],
          "order_column": 68,
          "created_at": "2020-04-15 14:20:31",
          "updated_at": "2020-04-15 14:20:31",
          "url": "https:\/\/markets.smartersvision.com\/storage\/app\/public\/68\/drug.svg",
          "thumb": "https:\/\/markets.smartersvision.com\/images\/icons\/svg.png",
          "icon": "https:\/\/markets.smartersvision.com\/images\/icons\/svg.png",
          "formated_size": "3.3 KB"
        }
      ]
    },
    "options": [
      {
        "id": 37,
        "name": "Red",
        "description": "Consequuntur id ab.",
        "price": 23.53,
        "product_id": 28,
        "option_group_id": 4,
        "created_at": "2020-04-12 16:51:06",
        "updated_at": "2020-04-12 16:51:06",
        "custom_fields": [],
        "has_media": false,
        "media": []
      },
      {
        "id": 45,
        "name": "Tomato",
        "description": "Et expedita nihil.",
        "price": 49.09,
        "product_id": 28,
        "option_group_id": 4,
        "created_at": "2020-04-12 16:51:06",
        "updated_at": "2020-04-12 16:51:06",
        "custom_fields": [],
        "has_media": false,
        "media": []
      }
    ],
    "product_reviews": [
      {
        "id": 12,
        "review": "Hatter went on again:-- 'You may not have lived much under the sea,' the Gryphon remarked: 'because they lessen from day to day.' This was quite surprised to find that she was in such a thing.",
        "rate": 2,
        "user_id": 4,
        "product_id": 28,
        "created_at": "2020-04-12 16:51:04",
        "updated_at": "2020-04-12 16:51:04",
        "custom_fields": []
      },
      {
        "id": 13,
        "review": "Alice went on again: 'Twenty-four hours, I THINK; or is it I can't show it you myself,' the Mock Turtle with a smile. There was no more of it at all,' said the Duchess. 'Everything's got a moral, if.",
        "rate": 2,
        "user_id": 6,
        "product_id": 28,
        "created_at": "2020-04-12 16:51:04",
        "updated_at": "2020-04-12 16:51:04",
        "custom_fields": []
      }
    ],
    "media": [
      {
        "id": 92,
        "model_type": "App\\Models\\Product",
        "model_id": 28,
        "collection_name": "image",
        "name": "products (3)",
        "file_name": "products-(3).jpg",
        "mime_type": "image\/jpeg",
        "disk": "public",
        "size": 18562,
        "manipulations": [],
        "custom_properties": {
          "uuid": "cc118220-b7dd-435b-800a-ff8ab3555440",
          "generated_conversions": {
            "thumb": true,
            "icon": true
          }
        },
        "responsive_images": [],
        "order_column": 92,
        "created_at": "2020-04-15 14:26:24",
        "updated_at": "2020-04-15 14:26:24",
        "url": "https:\/\/markets.smartersvision.com\/storage\/app\/public\/92\/products-%283%29.jpg",
        "thumb": "https:\/\/markets.smartersvision.com\/storage\/app\/public\/92\/conversions\/products-%283%29-thumb.jpg",
        "icon": "https:\/\/markets.smartersvision.com\/storage\/app\/public\/92\/conversions\/products-%283%29-icon.jpg",
        "formated_size": "18.1 KB"
      }
    ]
  },
  {
    "id": 37,
    "name": "Bread",
    "price": 12.3,
    "discount_price": 0,
    "description": "Et sapiente et reprehenderit minima sunt et eum. Non iusto qui ut facilis. Laborum ipsam nulla illo quis. Et blanditiis animi minus sapiente natus nemo reiciendis iste.",
    "capacity": 478.03,
    "package_items_count": 1,
    "unit": "Kg",
    "featured": true,
    "deliverable": true,
    "market_id": 5,
    "category_id": 5,
    "created_at": "2020-04-12 16:51:02",
    "updated_at": "2021-05-06 21:55:41",
    "custom_fields": [],
    "has_media": true,
    "market": {
      "id": 5,
      "name": "Rina's Artisan Bakery",
      "delivery_fee": 6.5,
      "address": "7414 Ward IslandNew Olaf, CO 18119",
      "phone": "+1-882-206-0154",
      "default_tax": 5.8,
      "custom_fields": [],
      "has_media": true,
      "rate": null,
      "media": [
        {
          "id": 176,
          "model_type": "App\\Models\\Market",
          "model_id": 5,
          "collection_name": "image",
          "name": "36344ca48475f863c1fe44d1c1cfab3f_M",
          "file_name": "36344ca48475f863c1fe44d1c1cfab3f_M.jpg",
          "mime_type": "image\/jpeg",
          "disk": "public",
          "size": 73768,
          "manipulations": [],
          "custom_properties": {
            "uuid": "0b9dde75-0138-47de-836e-a2f7df590190",
            "user_id": 1,
            "generated_conversions": {
              "thumb": true,
              "icon": true
            }
          },
          "responsive_images": [],
          "order_column": 173,
          "created_at": "2021-05-06 13:29:01",
          "updated_at": "2021-05-06 13:29:01",
          "url": "https:\/\/markets.smartersvision.com\/storage\/app\/public\/176\/36344ca48475f863c1fe44d1c1cfab3f_M.jpg",
          "thumb": "https:\/\/markets.smartersvision.com\/storage\/app\/public\/176\/conversions\/36344ca48475f863c1fe44d1c1cfab3f_M-thumb.jpg",
          "icon": "https:\/\/markets.smartersvision.com\/storage\/app\/public\/176\/conversions\/36344ca48475f863c1fe44d1c1cfab3f_M-icon.jpg",
          "formated_size": "72 KB"
        }
      ]
    },
    "category": {
      "id": 5,
      "name": "Foods",
      "description": "Debitis et qui est ut ab. Quos et ad sunt quo pariatur et sequi aliquam. Possimus quaerat praesentium sint temporibus omnis inventore fugiat. Voluptatem quas aspernatur neque totam expedita. Omnis ipsa similique est eligendi dolores officia.",
      "created_at": "2020-04-12 16:50:59",
      "updated_at": "2020-04-12 16:50:59",
      "custom_fields": [],
      "has_media": true,
      "media": [
        {
          "id": 66,
          "model_type": "App\\Models\\Category",
          "model_id": 5,
          "collection_name": "image",
          "name": "grocery",
          "file_name": "grocery.svg",
          "mime_type": "image\/svg+xml",
          "disk": "public",
          "size": 5296,
          "manipulations": [],
          "custom_properties": {
            "uuid": "fe2e8a47-54cb-4b8e-91c5-1de80074f7c1"
          },
          "responsive_images": [],
          "order_column": 66,
          "created_at": "2020-04-15 14:20:07",
          "updated_at": "2020-04-15 14:20:07",
          "url": "https:\/\/markets.smartersvision.com\/storage\/app\/public\/66\/grocery.svg",
          "thumb": "https:\/\/markets.smartersvision.com\/images\/icons\/svg.png",
          "icon": "https:\/\/markets.smartersvision.com\/images\/icons\/svg.png",
          "formated_size": "5.2 KB"
        }
      ]
    },
    "options": [],
    "product_reviews": [],
    "media": [
      {
        "id": 98,
        "model_type": "App\\Models\\Product",
        "model_id": 37,
        "collection_name": "image",
        "name": "products (9)",
        "file_name": "products-(9).jpg",
        "mime_type": "image\/jpeg",
        "disk": "public",
        "size": 27623,
        "manipulations": [],
        "custom_properties": {
          "uuid": "6cf27b53-5207-4242-ab5c-fedea6ed45b8",
          "generated_conversions": {
            "thumb": true,
            "icon": true
          }
        },
        "responsive_images": [],
        "order_column": 98,
        "created_at": "2020-04-15 14:26:42",
        "updated_at": "2020-04-15 14:26:42",
        "url": "https:\/\/markets.smartersvision.com\/storage\/app\/public\/98\/products-%289%29.jpg",
        "thumb": "https:\/\/markets.smartersvision.com\/storage\/app\/public\/98\/conversions\/products-%289%29-thumb.jpg",
        "icon": "https:\/\/markets.smartersvision.com\/storage\/app\/public\/98\/conversions\/products-%289%29-icon.jpg",
        "formated_size": "27 KB"
      }
    ]
  },
  {
    "id": 39,
    "name": "Milk",
    "price": 36.61,
    "discount_price": 0,
    "description": "Et consequuntur sed blanditiis ducimus sed eius. Excepturi vitae et ut debitis debitis illum quasi. Consequatur iusto est nihil.",
    "capacity": 412.36,
    "package_items_count": 11,
    "unit": "Kg",
    "featured": true,
    "deliverable": true,
    "market_id": 5,
    "category_id": 6,
    "created_at": "2020-04-12 16:51:03",
    "updated_at": "2021-05-06 21:54:08",
    "custom_fields": [],
    "has_media": true,
    "market": {
      "id": 5,
      "name": "Rina's Artisan Bakery",
      "delivery_fee": 6.5,
      "address": "7414 Ward IslandNew Olaf, CO 18119",
      "phone": "+1-882-206-0154",
      "default_tax": 5.8,
      "custom_fields": [],
      "has_media": true,
      "rate": null,
      "media": [
        {
          "id": 176,
          "model_type": "App\\Models\\Market",
          "model_id": 5,
          "collection_name": "image",
          "name": "36344ca48475f863c1fe44d1c1cfab3f_M",
          "file_name": "36344ca48475f863c1fe44d1c1cfab3f_M.jpg",
          "mime_type": "image\/jpeg",
          "disk": "public",
          "size": 73768,
          "manipulations": [],
          "custom_properties": {
            "uuid": "0b9dde75-0138-47de-836e-a2f7df590190",
            "user_id": 1,
            "generated_conversions": {
              "thumb": true,
              "icon": true
            }
          },
          "responsive_images": [],
          "order_column": 173,
          "created_at": "2021-05-06 13:29:01",
          "updated_at": "2021-05-06 13:29:01",
          "url": "https:\/\/markets.smartersvision.com\/storage\/app\/public\/176\/36344ca48475f863c1fe44d1c1cfab3f_M.jpg",
          "thumb": "https:\/\/markets.smartersvision.com\/storage\/app\/public\/176\/conversions\/36344ca48475f863c1fe44d1c1cfab3f_M-thumb.jpg",
          "icon": "https:\/\/markets.smartersvision.com\/storage\/app\/public\/176\/conversions\/36344ca48475f863c1fe44d1c1cfab3f_M-icon.jpg",
          "formated_size": "72 KB"
        }
      ]
    },
    "category": {
      "id": 6,
      "name": "Drinks",
      "description": "Impedit et iusto voluptatem magni fugiat qui neque. Ab ad et distinctio necessitatibus. Magnam pariatur rem aliquid in eos sint nam. Iure ea optio alias. Voluptatem esse aspernatur odit eaque nesciunt quasi aut.",
      "created_at": "2020-04-12 16:50:59",
      "updated_at": "2020-04-12 16:50:59",
      "custom_fields": [],
      "has_media": true,
      "media": [
        {
          "id": 62,
          "model_type": "App\\Models\\Category",
          "model_id": 6,
          "collection_name": "image",
          "name": "liquor",
          "file_name": "liquor.svg",
          "mime_type": "image\/svg+xml",
          "disk": "public",
          "size": 3654,
          "manipulations": [],
          "custom_properties": {
            "uuid": "b85e483a-157f-4afe-849e-3e31f9461a76"
          },
          "responsive_images": [],
          "order_column": 62,
          "created_at": "2020-04-15 14:19:24",
          "updated_at": "2020-04-15 14:19:24",
          "url": "https:\/\/markets.smartersvision.com\/storage\/app\/public\/62\/liquor.svg",
          "thumb": "https:\/\/markets.smartersvision.com\/images\/icons\/svg.png",
          "icon": "https:\/\/markets.smartersvision.com\/images\/icons\/svg.png",
          "formated_size": "3.6 KB"
        }
      ]
    },
    "options": [],
    "product_reviews": [],
    "media": [
      {
        "id": 74,
        "model_type": "App\\Models\\Product",
        "model_id": 39,
        "collection_name": "image",
        "name": "products (7)",
        "file_name": "products-(7).jpg",
        "mime_type": "image\/jpeg",
        "disk": "public",
        "size": 201005,
        "manipulations": [],
        "custom_properties": {
          "uuid": "e591898d-1bf5-49b0-b8f7-022c032756f7",
          "generated_conversions": {
            "thumb": true,
            "icon": true
          }
        },
        "responsive_images": [],
        "order_column": 74,
        "created_at": "2020-04-15 14:23:09",
        "updated_at": "2020-04-15 14:23:09",
        "url": "https:\/\/markets.smartersvision.com\/storage\/app\/public\/74\/products-%287%29.jpg",
        "thumb": "https:\/\/markets.smartersvision.com\/storage\/app\/public\/74\/conversions\/products-%287%29-thumb.jpg",
        "icon": "https:\/\/markets.smartersvision.com\/storage\/app\/public\/74\/conversions\/products-%287%29-icon.jpg",
        "formated_size": "196.3 KB"
      }
    ]
  },
  {
    "id": 35,
    "name": "Salad",
    "price": 45.98,
    "discount_price": 0,
    "description": "Aut et doloribus commodi velit veniam qui. Ad velit sit id nihil aut quas. Facere dolore sint eius id.",
    "capacity": 417.48,
    "package_items_count": 5,
    "unit": "g",
    "featured": true,
    "deliverable": true,
    "market_id": 6,
    "category_id": 5,
    "created_at": "2020-04-12 16:51:02",
    "updated_at": "2021-05-06 21:55:17",
    "custom_fields": [],
    "has_media": true,
    "market": {
      "id": 6,
      "name": "Segi Fresh Subang",
      "delivery_fee": 5.93,
      "address": "9469 Roslyn Drive Apt. 119Berryberg, WV 70819",
      "phone": "(272) 925-1675",
      "default_tax": 9.8,
      "custom_fields": [],
      "has_media": true,
      "rate": "3.8",
      "media": [
        {
          "id": 12,
          "model_type": "App\\Models\\Market",
          "model_id": 6,
          "collection_name": "image",
          "name": "markets (17)",
          "file_name": "markets-(17).jpg",
          "mime_type": "image\/jpeg",
          "disk": "public",
          "size": 197114,
          "manipulations": [],
          "custom_properties": {
            "uuid": "1c2c3e66-a931-4c4b-8fe8-8d226c2ac2de",
            "generated_conversions": {
              "thumb": true,
              "icon": true
            }
          },
          "responsive_images": [],
          "order_column": 12,
          "created_at": "2020-04-15 14:09:19",
          "updated_at": "2020-04-15 14:09:19",
          "url": "https:\/\/markets.smartersvision.com\/storage\/app\/public\/12\/markets-%2817%29.jpg",
          "thumb": "https:\/\/markets.smartersvision.com\/storage\/app\/public\/12\/conversions\/markets-%2817%29-thumb.jpg",
          "icon": "https:\/\/markets.smartersvision.com\/storage\/app\/public\/12\/conversions\/markets-%2817%29-icon.jpg",
          "formated_size": "192.5 KB"
        }
      ]
    },
    "category": {
      "id": 5,
      "name": "Foods",
      "description": "Debitis et qui est ut ab. Quos et ad sunt quo pariatur et sequi aliquam. Possimus quaerat praesentium sint temporibus omnis inventore fugiat. Voluptatem quas aspernatur neque totam expedita. Omnis ipsa similique est eligendi dolores officia.",
      "created_at": "2020-04-12 16:50:59",
      "updated_at": "2020-04-12 16:50:59",
      "custom_fields": [],
      "has_media": true,
      "media": [
        {
          "id": 66,
          "model_type": "App\\Models\\Category",
          "model_id": 5,
          "collection_name": "image",
          "name": "grocery",
          "file_name": "grocery.svg",
          "mime_type": "image\/svg+xml",
          "disk": "public",
          "size": 5296,
          "manipulations": [],
          "custom_properties": {
            "uuid": "fe2e8a47-54cb-4b8e-91c5-1de80074f7c1"
          },
          "responsive_images": [],
          "order_column": 66,
          "created_at": "2020-04-15 14:20:07",
          "updated_at": "2020-04-15 14:20:07",
          "url": "https:\/\/markets.smartersvision.com\/storage\/app\/public\/66\/grocery.svg",
          "thumb": "https:\/\/markets.smartersvision.com\/images\/icons\/svg.png",
          "icon": "https:\/\/markets.smartersvision.com\/images\/icons\/svg.png",
          "formated_size": "5.2 KB"
        }
      ]
    },
    "options": [],
    "product_reviews": [
      {
        "id": 31,
        "review": null,
        "rate": 5,
        "user_id": 3,
        "product_id": 35,
        "created_at": "2021-05-06 19:14:39",
        "updated_at": "2021-05-06 19:14:39",
        "custom_fields": []
      }
    ],
    "media": [
      {
        "id": 88,
        "model_type": "App\\Models\\Product",
        "model_id": 35,
        "collection_name": "image",
        "name": "products (22)",
        "file_name": "products-(22).jpg",
        "mime_type": "image\/jpeg",
        "disk": "public",
        "size": 112035,
        "manipulations": [],
        "custom_properties": {
          "uuid": "7b62dc7a-d6f9-4753-a675-25d31af32819",
          "generated_conversions": {
            "thumb": true,
            "icon": true
          }
        },
        "responsive_images": [],
        "order_column": 88,
        "created_at": "2020-04-15 14:25:05",
        "updated_at": "2020-04-15 14:25:05",
        "url": "https:\/\/markets.smartersvision.com\/storage\/app\/public\/88\/products-%2822%29.jpg",
        "thumb": "https:\/\/markets.smartersvision.com\/storage\/app\/public\/88\/conversions\/products-%2822%29-thumb.jpg",
        "icon": "https:\/\/markets.smartersvision.com\/storage\/app\/public\/88\/conversions\/products-%2822%29-icon.jpg",
        "formated_size": "109.4 KB"
      }
    ]
  },
  {
    "id": 17,
    "name": "Salt",
    "price": 32.04,
    "discount_price": 24.66,
    "description": "Quaerat eum occaecati inventore earum exercitationem et corporis. Blanditiis ab magnam in et autem. Et modi autem consequuntur qui dolor. Labore nulla quia vitae corrupti cumque illum.",
    "capacity": 242.58,
    "package_items_count": 4,
    "unit": "L",
    "featured": true,
    "deliverable": true,
    "market_id": 7,
    "category_id": 1,
    "created_at": "2020-04-12 16:51:01",
    "updated_at": "2021-05-06 21:53:44",
    "custom_fields": [],
    "has_media": true,
    "market": {
      "id": 7,
      "name": "Market Schroeder, Metz and Torphy",
      "delivery_fee": 8.71,
      "address": "395 Stefan Field Suite 965Westland, NY 90647-0835",
      "phone": "(589) 428-1103",
      "default_tax": 25.62,
      "custom_fields": [],
      "has_media": true,
      "rate": "1.0",
      "media": [
        {
          "id": 14,
          "model_type": "App\\Models\\Market",
          "model_id": 7,
          "collection_name": "image",
          "name": "markets (5)",
          "file_name": "markets-(5).jpg",
          "mime_type": "image\/jpeg",
          "disk": "public",
          "size": 250314,
          "manipulations": [],
          "custom_properties": {
            "uuid": "547bf43e-85bb-459d-88c0-07701654df66",
            "generated_conversions": {
              "thumb": true,
              "icon": true
            }
          },
          "responsive_images": [],
          "order_column": 14,
          "created_at": "2020-04-15 14:09:32",
          "updated_at": "2020-04-15 14:09:32",
          "url": "https:\/\/markets.smartersvision.com\/storage\/app\/public\/14\/markets-%285%29.jpg",
          "thumb": "https:\/\/markets.smartersvision.com\/storage\/app\/public\/14\/conversions\/markets-%285%29-thumb.jpg",
          "icon": "https:\/\/markets.smartersvision.com\/storage\/app\/public\/14\/conversions\/markets-%285%29-icon.jpg",
          "formated_size": "244.4 KB"
        }
      ]
    },
    "category": {
      "id": 1,
      "name": "Medicines",
      "description": "Laborum porro rerum architecto ea optio illum. Aperiam hic dolores voluptas ut aliquam aut. Quibusdam vel quod numquam ut. Ratione numquam natus consequatur aspernatur laudantium pariatur velit. Ea voluptas et expedita eum.",
      "created_at": "2020-04-12 16:50:59",
      "updated_at": "2020-04-12 16:50:59",
      "custom_fields": [],
      "has_media": true,
      "media": [
        {
          "id": 68,
          "model_type": "App\\Models\\Category",
          "model_id": 1,
          "collection_name": "image",
          "name": "drug",
          "file_name": "drug.svg",
          "mime_type": "image\/svg+xml",
          "disk": "public",
          "size": 3396,
          "manipulations": [],
          "custom_properties": {
            "uuid": "16b9d934-339a-4fc4-9c57-2a34a91e1baa"
          },
          "responsive_images": [],
          "order_column": 68,
          "created_at": "2020-04-15 14:20:31",
          "updated_at": "2020-04-15 14:20:31",
          "url": "https:\/\/markets.smartersvision.com\/storage\/app\/public\/68\/drug.svg",
          "thumb": "https:\/\/markets.smartersvision.com\/images\/icons\/svg.png",
          "icon": "https:\/\/markets.smartersvision.com\/images\/icons\/svg.png",
          "formated_size": "3.3 KB"
        }
      ]
    },
    "options": [
      {
        "id": 19,
        "name": "500g",
        "description": "Possimus molestiae voluptates ut.",
        "price": 13.94,
        "product_id": 17,
        "option_group_id": 1,
        "created_at": "2020-04-12 16:51:06",
        "updated_at": "2020-04-12 16:51:06",
        "custom_fields": [],
        "has_media": false,
        "media": []
      },
      {
        "id": 25,
        "name": "500g",
        "description": "Ut et sed et ullam esse.",
        "price": 34.43,
        "product_id": 17,
        "option_group_id": 3,
        "created_at": "2020-04-12 16:51:06",
        "updated_at": "2020-04-12 16:51:06",
        "custom_fields": [],
        "has_media": false,
        "media": []
      },
      {
        "id": 48,
        "name": "Tomato",
        "description": "Placeat et deleniti esse velit.",
        "price": 24.17,
        "product_id": 17,
        "option_group_id": 4,
        "created_at": "2020-04-12 16:51:06",
        "updated_at": "2020-04-12 16:51:06",
        "custom_fields": [],
        "has_media": false,
        "media": []
      }
    ],
    "product_reviews": [
      {
        "id": 26,
        "review": "Queen said--' 'Get to your little boy, And beat him when he sneezes; For he can EVEN finish, if he were trying which word sounded best. Some of the trees behind him. '--or next day, maybe,' the.",
        "rate": 4,
        "user_id": 5,
        "product_id": 17,
        "created_at": "2020-04-12 16:51:04",
        "updated_at": "2020-04-12 16:51:04",
        "custom_fields": []
      }
    ],
    "media": [
      {
        "id": 106,
        "model_type": "App\\Models\\Product",
        "model_id": 17,
        "collection_name": "image",
        "name": "products (13)",
        "file_name": "products-(13).jpg",
        "mime_type": "image\/jpeg",
        "disk": "public",
        "size": 224241,
        "manipulations": [],
        "custom_properties": {
          "uuid": "a9358c43-b0ad-40d2-84a9-618affeba445",
          "generated_conversions": {
            "thumb": true,
            "icon": true
          }
        },
        "responsive_images": [],
        "order_column": 106,
        "created_at": "2020-04-15 14:27:01",
        "updated_at": "2020-04-15 14:27:01",
        "url": "https:\/\/markets.smartersvision.com\/storage\/app\/public\/106\/products-%2813%29.jpg",
        "thumb": "https:\/\/markets.smartersvision.com\/storage\/app\/public\/106\/conversions\/products-%2813%29-thumb.jpg",
        "icon": "https:\/\/markets.smartersvision.com\/storage\/app\/public\/106\/conversions\/products-%2813%29-icon.jpg",
        "formated_size": "219 KB"
      }
    ]
  },
  {
    "id": 7,
    "name": "Turkey Sandwich",
    "price": 20.02,
    "discount_price": 14.88,
    "description": "<span style=\"color: rgb(77, 81, 86); font-family: arial, sans-serif; font-size: 14px;\">The&nbsp;<\/span><span style=\"font-weight: bold; color: rgb(95, 99, 104); font-family: arial, sans-serif; font-size: 14px;\">Turkey Breast sandwich<\/span><span style=\"color: rgb(77, 81, 86); font-family: arial, sans-serif; font-size: 14px;\">&nbsp;is part of the Fresh Fit menu. With 280 calories and 18 grams of protein, this is a great choice if you're looking for a healthy lunch.<\/span>",
    "capacity": 1,
    "package_items_count": 0,
    "unit": "Set",
    "featured": true,
    "deliverable": false,
    "market_id": 9,
    "category_id": 2,
    "created_at": "2020-04-12 16:51:00",
    "updated_at": "2021-05-07 10:08:41",
    "custom_fields": [],
    "has_media": false,
    "market": {
      "id": 9,
      "name": "Subway Taman Medan",
      "delivery_fee": 7.56,
      "address": "G 28, Amcorp Mall, Jalan Persiaran Barat, Pjs 52, 46000 Petaling Jaya, Selangor",
      "phone": "03-7958 2157",
      "default_tax": 20.51,
      "custom_fields": [],
      "has_media": true,
      "rate": "3.0",
      "media": [
        {
          "id": 186,
          "model_type": "App\\Models\\Market",
          "model_id": 9,
          "collection_name": "image",
          "name": "jpeg_20160824_104847_-1035921111_1472006985",
          "file_name": "jpeg_20160824_104847_-1035921111_1472006985.jpg",
          "mime_type": "image\/jpeg",
          "disk": "public",
          "size": 105581,
          "manipulations": [],
          "custom_properties": {
            "uuid": "fcedfd7a-f351-4dc2-a202-28d307d96eaa",
            "user_id": 1,
            "generated_conversions": {
              "thumb": true,
              "icon": true
            }
          },
          "responsive_images": [],
          "order_column": 183,
          "created_at": "2021-05-07 09:44:10",
          "updated_at": "2021-05-07 09:44:10",
          "url": "https:\/\/markets.smartersvision.com\/storage\/app\/public\/186\/jpeg_20160824_104847_-1035921111_1472006985.jpg",
          "thumb": "https:\/\/markets.smartersvision.com\/storage\/app\/public\/186\/conversions\/jpeg_20160824_104847_-1035921111_1472006985-thumb.jpg",
          "icon": "https:\/\/markets.smartersvision.com\/storage\/app\/public\/186\/conversions\/jpeg_20160824_104847_-1035921111_1472006985-icon.jpg",
          "formated_size": "103.1 KB"
        }
      ]
    },
    "category": {
      "id": 2,
      "name": "Tools",
      "description": "Non placeat molestias error autem suscipit consequatur recusandae. Autem omnis id quia. Ut eos neque aut ullam optio molestiae molestiae tempore. Iusto nulla eius nulla nostrum nesciunt. Architecto necessitatibus cupiditate dolorum et aut nulla quidem.",
      "created_at": "2020-04-12 16:50:59",
      "updated_at": "2020-04-15 14:21:39",
      "custom_fields": [],
      "has_media": true,
      "media": [
        {
          "id": 193,
          "model_type": "App\\Models\\Category",
          "model_id": 2,
          "collection_name": "image",
          "name": "iconfinder_construction_drill_driller_drilling_machine_work_worker_tool_drill_machine_drilling_machine_power_drill_engineer_engineering_4960329",
          "file_name": "iconfinder_construction_drill_driller_drilling_machine_work_worker_tool_drill_machine_drilling_machine_power_drill_engineer_engineering_4960329.png",
          "mime_type": "image\/png",
          "disk": "public",
          "size": 10631,
          "manipulations": [],
          "custom_properties": {
            "uuid": "ad67fd6d-cfbf-4ea5-9328-e50513879065",
            "user_id": 1,
            "generated_conversions": {
              "thumb": true,
              "icon": true
            }
          },
          "responsive_images": [],
          "order_column": 190,
          "created_at": "2021-05-08 07:53:46",
          "updated_at": "2021-05-08 07:53:46",
          "url": "https:\/\/markets.smartersvision.com\/storage\/app\/public\/193\/iconfinder_construction_drill_driller_drilling_machine_work_worker_tool_drill_machine_drilling_machine_power_drill_engineer_engineering_4960329.png",
          "thumb": "https:\/\/markets.smartersvision.com\/storage\/app\/public\/193\/conversions\/iconfinder_construction_drill_driller_drilling_machine_work_worker_tool_drill_machine_drilling_machine_power_drill_engineer_engineering_4960329-thumb.jpg",
          "icon": "https:\/\/markets.smartersvision.com\/storage\/app\/public\/193\/conversions\/iconfinder_construction_drill_driller_drilling_machine_work_worker_tool_drill_machine_drilling_machine_power_drill_engineer_engineering_4960329-icon.jpg",
          "formated_size": "10.4 KB"
        }
      ]
    },
    "options": [
      {
        "id": 32,
        "name": "Red",
        "description": "Minima culpa accusantium dolorum exercitationem.",
        "price": 23.67,
        "product_id": 7,
        "option_group_id": 2,
        "created_at": "2020-04-12 16:51:06",
        "updated_at": "2020-04-12 16:51:06",
        "custom_fields": [],
        "has_media": false,
        "media": []
      },
      {
        "id": 55,
        "name": "5L",
        "description": "Aut voluptatem dignissimos atque dolor dolores.",
        "price": 47.63,
        "product_id": 7,
        "option_group_id": 4,
        "created_at": "2020-04-12 16:51:06",
        "updated_at": "2020-04-12 16:51:06",
        "custom_fields": [],
        "has_media": false,
        "media": []
      }
    ],
    "product_reviews": [
      {
        "id": 9,
        "review": "And here poor Alice in a court of justice before, but she stopped hastily, for the baby, the shriek of the window, and some of them can explain it,' said the Dodo solemnly presented the thimble.",
        "rate": 3,
        "user_id": 1,
        "product_id": 7,
        "created_at": "2020-04-12 16:51:04",
        "updated_at": "2020-04-12 16:51:04",
        "custom_fields": []
      }
    ],
    "media": []
  },
  {
    "id": 18,
    "name": "Steak",
    "price": 43.75,
    "discount_price": 42.22,
    "description": "Asperiores sint eum qui reiciendis harum. Nobis vitae quod et praesentium dolor quis. Rerum aut quibusdam maxime quaerat quo expedita consectetur.",
    "capacity": 151.76,
    "package_items_count": 5,
    "unit": "Kg",
    "featured": true,
    "deliverable": true,
    "market_id": 9,
    "category_id": 1,
    "created_at": "2020-04-12 16:51:01",
    "updated_at": "2021-05-06 21:56:15",
    "custom_fields": [],
    "has_media": true,
    "market": {
      "id": 9,
      "name": "Subway Taman Medan",
      "delivery_fee": 7.56,
      "address": "G 28, Amcorp Mall, Jalan Persiaran Barat, Pjs 52, 46000 Petaling Jaya, Selangor",
      "phone": "03-7958 2157",
      "default_tax": 20.51,
      "custom_fields": [],
      "has_media": true,
      "rate": "3.0",
      "media": [
        {
          "id": 186,
          "model_type": "App\\Models\\Market",
          "model_id": 9,
          "collection_name": "image",
          "name": "jpeg_20160824_104847_-1035921111_1472006985",
          "file_name": "jpeg_20160824_104847_-1035921111_1472006985.jpg",
          "mime_type": "image\/jpeg",
          "disk": "public",
          "size": 105581,
          "manipulations": [],
          "custom_properties": {
            "uuid": "fcedfd7a-f351-4dc2-a202-28d307d96eaa",
            "user_id": 1,
            "generated_conversions": {
              "thumb": true,
              "icon": true
            }
          },
          "responsive_images": [],
          "order_column": 183,
          "created_at": "2021-05-07 09:44:10",
          "updated_at": "2021-05-07 09:44:10",
          "url": "https:\/\/markets.smartersvision.com\/storage\/app\/public\/186\/jpeg_20160824_104847_-1035921111_1472006985.jpg",
          "thumb": "https:\/\/markets.smartersvision.com\/storage\/app\/public\/186\/conversions\/jpeg_20160824_104847_-1035921111_1472006985-thumb.jpg",
          "icon": "https:\/\/markets.smartersvision.com\/storage\/app\/public\/186\/conversions\/jpeg_20160824_104847_-1035921111_1472006985-icon.jpg",
          "formated_size": "103.1 KB"
        }
      ]
    },
    "category": {
      "id": 1,
      "name": "Medicines",
      "description": "Laborum porro rerum architecto ea optio illum. Aperiam hic dolores voluptas ut aliquam aut. Quibusdam vel quod numquam ut. Ratione numquam natus consequatur aspernatur laudantium pariatur velit. Ea voluptas et expedita eum.",
      "created_at": "2020-04-12 16:50:59",
      "updated_at": "2020-04-12 16:50:59",
      "custom_fields": [],
      "has_media": true,
      "media": [
        {
          "id": 68,
          "model_type": "App\\Models\\Category",
          "model_id": 1,
          "collection_name": "image",
          "name": "drug",
          "file_name": "drug.svg",
          "mime_type": "image\/svg+xml",
          "disk": "public",
          "size": 3396,
          "manipulations": [],
          "custom_properties": {
            "uuid": "16b9d934-339a-4fc4-9c57-2a34a91e1baa"
          },
          "responsive_images": [],
          "order_column": 68,
          "created_at": "2020-04-15 14:20:31",
          "updated_at": "2020-04-15 14:20:31",
          "url": "https:\/\/markets.smartersvision.com\/storage\/app\/public\/68\/drug.svg",
          "thumb": "https:\/\/markets.smartersvision.com\/images\/icons\/svg.png",
          "icon": "https:\/\/markets.smartersvision.com\/images\/icons\/svg.png",
          "formated_size": "3.3 KB"
        }
      ]
    },
    "options": [],
    "product_reviews": [
      {
        "id": 2,
        "review": "Alice. 'Stand up and said, 'So you think I could, if I can say.' This was not an encouraging tone. Alice looked at Alice. 'I'M not a regular rule: you invented it just at present--at least I mean.",
        "rate": 4,
        "user_id": 2,
        "product_id": 18,
        "created_at": "2020-04-12 16:51:04",
        "updated_at": "2020-04-12 16:51:04",
        "custom_fields": []
      }
    ],
    "media": [
      {
        "id": 102,
        "model_type": "App\\Models\\Product",
        "model_id": 18,
        "collection_name": "image",
        "name": "products (11)",
        "file_name": "products-(11).jpg",
        "mime_type": "image\/jpeg",
        "disk": "public",
        "size": 98739,
        "manipulations": [],
        "custom_properties": {
          "uuid": "42e83514-e6a2-49fe-9575-63d223123b83",
          "generated_conversions": {
            "thumb": true,
            "icon": true
          }
        },
        "responsive_images": [],
        "order_column": 102,
        "created_at": "2020-04-15 14:26:52",
        "updated_at": "2020-04-15 14:26:52",
        "url": "https:\/\/markets.smartersvision.com\/storage\/app\/public\/102\/products-%2811%29.jpg",
        "thumb": "https:\/\/markets.smartersvision.com\/storage\/app\/public\/102\/conversions\/products-%2811%29-thumb.jpg",
        "icon": "https:\/\/markets.smartersvision.com\/storage\/app\/public\/102\/conversions\/products-%2811%29-icon.jpg",
        "formated_size": "96.4 KB"
      }
    ]
  },
  {
    "id": 22,
    "name": "Turkey Sandwich",
    "price": 13.3,
    "discount_price": 0,
    "description": "<div id=\"introtext\" style=\"margin: 0px 0px 20px; color: rgb(84, 84, 84); font-family: Roboto, Arial, Helvetica, sans-serif; font-size: 14px;\"><span id=\"main_0_centercolumn_0_lblDesc\" class=\"copy-medium\" style=\"line-height: 19px; color: rgb(53, 53, 53); display: block;\">It’s the classic tender turkey sandwich and all your favorite veggies and selected condiments. Try it with cheese and have it fresh toasted for a hot, melty and delicious taste.<\/span><\/div><div id=\"yourProdContent\" style=\"min-height: 410px; height: auto; color: rgb(84, 84, 84); font-family: Roboto, Arial, Helvetica, sans-serif; font-size: 14px;\"><div class=\"menu-product-flash\" style=\"text-align: center; margin: 15px;\"><\/div><\/div>",
    "capacity": 1,
    "package_items_count": 1,
    "unit": "Set",
    "featured": true,
    "deliverable": false,
    "market_id": 9,
    "category_id": 6,
    "created_at": "2020-04-12 16:51:01",
    "updated_at": "2021-05-07 08:39:26",
    "custom_fields": [],
    "has_media": true,
    "market": {
      "id": 9,
      "name": "Subway Taman Medan",
      "delivery_fee": 7.56,
      "address": "G 28, Amcorp Mall, Jalan Persiaran Barat, Pjs 52, 46000 Petaling Jaya, Selangor",
      "phone": "03-7958 2157",
      "default_tax": 20.51,
      "custom_fields": [],
      "has_media": true,
      "rate": "3.0",
      "media": [
        {
          "id": 186,
          "model_type": "App\\Models\\Market",
          "model_id": 9,
          "collection_name": "image",
          "name": "jpeg_20160824_104847_-1035921111_1472006985",
          "file_name": "jpeg_20160824_104847_-1035921111_1472006985.jpg",
          "mime_type": "image\/jpeg",
          "disk": "public",
          "size": 105581,
          "manipulations": [],
          "custom_properties": {
            "uuid": "fcedfd7a-f351-4dc2-a202-28d307d96eaa",
            "user_id": 1,
            "generated_conversions": {
              "thumb": true,
              "icon": true
            }
          },
          "responsive_images": [],
          "order_column": 183,
          "created_at": "2021-05-07 09:44:10",
          "updated_at": "2021-05-07 09:44:10",
          "url": "https:\/\/markets.smartersvision.com\/storage\/app\/public\/186\/jpeg_20160824_104847_-1035921111_1472006985.jpg",
          "thumb": "https:\/\/markets.smartersvision.com\/storage\/app\/public\/186\/conversions\/jpeg_20160824_104847_-1035921111_1472006985-thumb.jpg",
          "icon": "https:\/\/markets.smartersvision.com\/storage\/app\/public\/186\/conversions\/jpeg_20160824_104847_-1035921111_1472006985-icon.jpg",
          "formated_size": "103.1 KB"
        }
      ]
    },
    "category": {
      "id": 6,
      "name": "Drinks",
      "description": "Impedit et iusto voluptatem magni fugiat qui neque. Ab ad et distinctio necessitatibus. Magnam pariatur rem aliquid in eos sint nam. Iure ea optio alias. Voluptatem esse aspernatur odit eaque nesciunt quasi aut.",
      "created_at": "2020-04-12 16:50:59",
      "updated_at": "2020-04-12 16:50:59",
      "custom_fields": [],
      "has_media": true,
      "media": [
        {
          "id": 62,
          "model_type": "App\\Models\\Category",
          "model_id": 6,
          "collection_name": "image",
          "name": "liquor",
          "file_name": "liquor.svg",
          "mime_type": "image\/svg+xml",
          "disk": "public",
          "size": 3654,
          "manipulations": [],
          "custom_properties": {
            "uuid": "b85e483a-157f-4afe-849e-3e31f9461a76"
          },
          "responsive_images": [],
          "order_column": 62,
          "created_at": "2020-04-15 14:19:24",
          "updated_at": "2020-04-15 14:19:24",
          "url": "https:\/\/markets.smartersvision.com\/storage\/app\/public\/62\/liquor.svg",
          "thumb": "https:\/\/markets.smartersvision.com\/images\/icons\/svg.png",
          "icon": "https:\/\/markets.smartersvision.com\/images\/icons\/svg.png",
          "formated_size": "3.6 KB"
        }
      ]
    },
    "options": [
      {
        "id": 20,
        "name": "White",
        "description": "Rem neque aut consequuntur delectus.",
        "price": 23.35,
        "product_id": 22,
        "option_group_id": 4,
        "created_at": "2020-04-12 16:51:06",
        "updated_at": "2020-04-12 16:51:06",
        "custom_fields": [],
        "has_media": false,
        "media": []
      },
      {
        "id": 33,
        "name": "S",
        "description": "Itaque corrupti rem consectetur.",
        "price": 27.89,
        "product_id": 22,
        "option_group_id": 2,
        "created_at": "2020-04-12 16:51:06",
        "updated_at": "2020-04-12 16:51:06",
        "custom_fields": [],
        "has_media": false,
        "media": []
      },
      {
        "id": 38,
        "name": "5L",
        "description": "Cum iusto maxime non consequatur nemo.",
        "price": 15.44,
        "product_id": 22,
        "option_group_id": 4,
        "created_at": "2020-04-12 16:51:06",
        "updated_at": "2020-04-12 16:51:06",
        "custom_fields": [],
        "has_media": false,
        "media": []
      }
    ],
    "product_reviews": [
      {
        "id": 19,
        "review": "Go on!' 'I'm a poor man, your Majesty,' the Hatter went on, yawning and rubbing its eyes, 'Of course, of course; just what I say--that's the same thing as \"I get what I should like to have got.",
        "rate": 4,
        "user_id": 6,
        "product_id": 22,
        "created_at": "2020-04-12 16:51:04",
        "updated_at": "2020-04-12 16:51:04",
        "custom_fields": []
      }
    ],
    "media": [
      {
        "id": 118,
        "model_type": "App\\Models\\Product",
        "model_id": 22,
        "collection_name": "image",
        "name": "products (19)",
        "file_name": "products-(19).jpg",
        "mime_type": "image\/jpeg",
        "disk": "public",
        "size": 486135,
        "manipulations": [],
        "custom_properties": {
          "uuid": "b904d31b-b9ea-433d-8368-59f70ebe9501",
          "generated_conversions": {
            "thumb": true,
            "icon": true
          }
        },
        "responsive_images": [],
        "order_column": 118,
        "created_at": "2020-04-15 14:27:25",
        "updated_at": "2020-04-15 14:27:25",
        "url": "https:\/\/markets.smartersvision.com\/storage\/app\/public\/118\/products-%2819%29.jpg",
        "thumb": "https:\/\/markets.smartersvision.com\/storage\/app\/public\/118\/conversions\/products-%2819%29-thumb.jpg",
        "icon": "https:\/\/markets.smartersvision.com\/storage\/app\/public\/118\/conversions\/products-%2819%29-icon.jpg",
        "formated_size": "474.7 KB"
      }
    ]
  },
  {
    "id": 24,
    "name": "Pasta",
    "price": 32.85,
    "discount_price": 28.62,
    "description": "Vel odio iusto illum. Eos eos dolorum dolore ipsam harum rerum deserunt cupiditate. Ipsam nihil quia quis fugit qui magnam.",
    "capacity": 425.98,
    "package_items_count": 4,
    "unit": "Kg",
    "featured": true,
    "deliverable": true,
    "market_id": 9,
    "category_id": 5,
    "created_at": "2020-04-12 16:51:01",
    "updated_at": "2021-05-06 21:56:08",
    "custom_fields": [],
    "has_media": true,
    "market": {
      "id": 9,
      "name": "Subway Taman Medan",
      "delivery_fee": 7.56,
      "address": "G 28, Amcorp Mall, Jalan Persiaran Barat, Pjs 52, 46000 Petaling Jaya, Selangor",
      "phone": "03-7958 2157",
      "default_tax": 20.51,
      "custom_fields": [],
      "has_media": true,
      "rate": "3.0",
      "media": [
        {
          "id": 186,
          "model_type": "App\\Models\\Market",
          "model_id": 9,
          "collection_name": "image",
          "name": "jpeg_20160824_104847_-1035921111_1472006985",
          "file_name": "jpeg_20160824_104847_-1035921111_1472006985.jpg",
          "mime_type": "image\/jpeg",
          "disk": "public",
          "size": 105581,
          "manipulations": [],
          "custom_properties": {
            "uuid": "fcedfd7a-f351-4dc2-a202-28d307d96eaa",
            "user_id": 1,
            "generated_conversions": {
              "thumb": true,
              "icon": true
            }
          },
          "responsive_images": [],
          "order_column": 183,
          "created_at": "2021-05-07 09:44:10",
          "updated_at": "2021-05-07 09:44:10",
          "url": "https:\/\/markets.smartersvision.com\/storage\/app\/public\/186\/jpeg_20160824_104847_-1035921111_1472006985.jpg",
          "thumb": "https:\/\/markets.smartersvision.com\/storage\/app\/public\/186\/conversions\/jpeg_20160824_104847_-1035921111_1472006985-thumb.jpg",
          "icon": "https:\/\/markets.smartersvision.com\/storage\/app\/public\/186\/conversions\/jpeg_20160824_104847_-1035921111_1472006985-icon.jpg",
          "formated_size": "103.1 KB"
        }
      ]
    },
    "category": {
      "id": 5,
      "name": "Foods",
      "description": "Debitis et qui est ut ab. Quos et ad sunt quo pariatur et sequi aliquam. Possimus quaerat praesentium sint temporibus omnis inventore fugiat. Voluptatem quas aspernatur neque totam expedita. Omnis ipsa similique est eligendi dolores officia.",
      "created_at": "2020-04-12 16:50:59",
      "updated_at": "2020-04-12 16:50:59",
      "custom_fields": [],
      "has_media": true,
      "media": [
        {
          "id": 66,
          "model_type": "App\\Models\\Category",
          "model_id": 5,
          "collection_name": "image",
          "name": "grocery",
          "file_name": "grocery.svg",
          "mime_type": "image\/svg+xml",
          "disk": "public",
          "size": 5296,
          "manipulations": [],
          "custom_properties": {
            "uuid": "fe2e8a47-54cb-4b8e-91c5-1de80074f7c1"
          },
          "responsive_images": [],
          "order_column": 66,
          "created_at": "2020-04-15 14:20:07",
          "updated_at": "2020-04-15 14:20:07",
          "url": "https:\/\/markets.smartersvision.com\/storage\/app\/public\/66\/grocery.svg",
          "thumb": "https:\/\/markets.smartersvision.com\/images\/icons\/svg.png",
          "icon": "https:\/\/markets.smartersvision.com\/images\/icons\/svg.png",
          "formated_size": "5.2 KB"
        }
      ]
    },
    "options": [
      {
        "id": 5,
        "name": "XL",
        "description": "Occaecati ipsa commodi aut sunt.",
        "price": 38.71,
        "product_id": 24,
        "option_group_id": 3,
        "created_at": "2020-04-12 16:51:06",
        "updated_at": "2020-04-12 16:51:06",
        "custom_fields": [],
        "has_media": false,
        "media": []
      }
    ],
    "product_reviews": [
      {
        "id": 5,
        "review": "Footman went on saying to herself that perhaps it was quite tired of being all alone here!' As she said to itself 'Then I'll go round and get in at the cook was busily stirring the soup, and seemed.",
        "rate": 5,
        "user_id": 4,
        "product_id": 24,
        "created_at": "2020-04-12 16:51:04",
        "updated_at": "2020-04-12 16:51:04",
        "custom_fields": []
      },
      {
        "id": 18,
        "review": "I used to say \"HOW DOTH THE LITTLE BUSY BEE,\" but it all seemed quite natural to Alice for protection. 'You shan't be beheaded!' 'What for?' said Alice. 'I don't like them!' When the sands are all.",
        "rate": 3,
        "user_id": 2,
        "product_id": 24,
        "created_at": "2020-04-12 16:51:04",
        "updated_at": "2020-04-12 16:51:04",
        "custom_fields": []
      },
      {
        "id": 24,
        "review": "Alice as it spoke (it was Bill, the Lizard) could not taste theirs, and the great question certainly was, what? Alice looked very anxiously into its face in her life before, and she sat still and.",
        "rate": 5,
        "user_id": 1,
        "product_id": 24,
        "created_at": "2020-04-12 16:51:04",
        "updated_at": "2020-04-12 16:51:04",
        "custom_fields": []
      },
      {
        "id": 27,
        "review": "Mock Turtle drew a long way back, and barking hoarsely all the jurymen are back in a sulky tone; 'Seven jogged my elbow.' On which Seven looked up eagerly, half hoping that they could not make out.",
        "rate": 4,
        "user_id": 2,
        "product_id": 24,
        "created_at": "2020-04-12 16:51:04",
        "updated_at": "2020-04-12 16:51:04",
        "custom_fields": []
      }
    ],
    "media": [
      {
        "id": 110,
        "model_type": "App\\Models\\Product",
        "model_id": 24,
        "collection_name": "image",
        "name": "products (15)",
        "file_name": "products-(15).jpg",
        "mime_type": "image\/jpeg",
        "disk": "public",
        "size": 420894,
        "manipulations": [],
        "custom_properties": {
          "uuid": "290b0abc-da94-4cf9-b0af-ca351ad9833b",
          "generated_conversions": {
            "thumb": true,
            "icon": true
          }
        },
        "responsive_images": [],
        "order_column": 110,
        "created_at": "2020-04-15 14:27:09",
        "updated_at": "2020-04-15 14:27:09",
        "url": "https:\/\/markets.smartersvision.com\/storage\/app\/public\/110\/products-%2815%29.jpg",
        "thumb": "https:\/\/markets.smartersvision.com\/storage\/app\/public\/110\/conversions\/products-%2815%29-thumb.jpg",
        "icon": "https:\/\/markets.smartersvision.com\/storage\/app\/public\/110\/conversions\/products-%2815%29-icon.jpg",
        "formated_size": "411 KB"
      }
    ]
  },
  {
    "id": 30,
    "name": "Cheese",
    "price": 22.88,
    "discount_price": 20.75,
    "description": "Velit et dicta quo nisi. Ipsa vitae consequatur modi. Quaerat rerum officiis praesentium tempora consequatur ducimus.",
    "capacity": 151.23,
    "package_items_count": 6,
    "unit": "L",
    "featured": true,
    "deliverable": true,
    "market_id": 8,
    "category_id": 5,
    "created_at": "2020-04-12 16:51:02",
    "updated_at": "2021-05-06 21:55:29",
    "custom_fields": [],
    "has_media": true,
    "market": {
      "id": 8,
      "name": "Grocery Lubowitz Inc",
      "delivery_fee": 1.97,
      "address": "46778 Cali LoafNorth Meganehaven, KY 34487-5419",
      "phone": "+1 (962) 856-4285",
      "default_tax": 15.63,
      "custom_fields": [],
      "has_media": true,
      "rate": "3.5",
      "media": [
        {
          "id": 16,
          "model_type": "App\\Models\\Market",
          "model_id": 8,
          "collection_name": "image",
          "name": "markets (8)",
          "file_name": "markets-(8).jpg",
          "mime_type": "image\/jpeg",
          "disk": "public",
          "size": 222987,
          "manipulations": [],
          "custom_properties": {
            "uuid": "ed49a4b2-e1d3-4dc2-84d3-2966060af69d",
            "generated_conversions": {
              "thumb": true,
              "icon": true
            }
          },
          "responsive_images": [],
          "order_column": 16,
          "created_at": "2020-04-15 14:09:54",
          "updated_at": "2020-04-15 14:09:54",
          "url": "https:\/\/markets.smartersvision.com\/storage\/app\/public\/16\/markets-%288%29.jpg",
          "thumb": "https:\/\/markets.smartersvision.com\/storage\/app\/public\/16\/conversions\/markets-%288%29-thumb.jpg",
          "icon": "https:\/\/markets.smartersvision.com\/storage\/app\/public\/16\/conversions\/markets-%288%29-icon.jpg",
          "formated_size": "217.8 KB"
        }
      ]
    },
    "category": {
      "id": 5,
      "name": "Foods",
      "description": "Debitis et qui est ut ab. Quos et ad sunt quo pariatur et sequi aliquam. Possimus quaerat praesentium sint temporibus omnis inventore fugiat. Voluptatem quas aspernatur neque totam expedita. Omnis ipsa similique est eligendi dolores officia.",
      "created_at": "2020-04-12 16:50:59",
      "updated_at": "2020-04-12 16:50:59",
      "custom_fields": [],
      "has_media": true,
      "media": [
        {
          "id": 66,
          "model_type": "App\\Models\\Category",
          "model_id": 5,
          "collection_name": "image",
          "name": "grocery",
          "file_name": "grocery.svg",
          "mime_type": "image\/svg+xml",
          "disk": "public",
          "size": 5296,
          "manipulations": [],
          "custom_properties": {
            "uuid": "fe2e8a47-54cb-4b8e-91c5-1de80074f7c1"
          },
          "responsive_images": [],
          "order_column": 66,
          "created_at": "2020-04-15 14:20:07",
          "updated_at": "2020-04-15 14:20:07",
          "url": "https:\/\/markets.smartersvision.com\/storage\/app\/public\/66\/grocery.svg",
          "thumb": "https:\/\/markets.smartersvision.com\/images\/icons\/svg.png",
          "icon": "https:\/\/markets.smartersvision.com\/images\/icons\/svg.png",
          "formated_size": "5.2 KB"
        }
      ]
    },
    "options": [
      {
        "id": 28,
        "name": "Green",
        "description": "Voluptatum et nihil magni.",
        "price": 27.19,
        "product_id": 30,
        "option_group_id": 2,
        "created_at": "2020-04-12 16:51:06",
        "updated_at": "2020-04-12 16:51:06",
        "custom_fields": [],
        "has_media": false,
        "media": []
      },
      {
        "id": 47,
        "name": "5L",
        "description": "Velit tempora neque qui quasi.",
        "price": 35.45,
        "product_id": 30,
        "option_group_id": 3,
        "created_at": "2020-04-12 16:51:06",
        "updated_at": "2020-04-12 16:51:06",
        "custom_fields": [],
        "has_media": false,
        "media": []
      }
    ],
    "product_reviews": [],
    "media": [
      {
        "id": 94,
        "model_type": "App\\Models\\Product",
        "model_id": 30,
        "collection_name": "image",
        "name": "products (4)",
        "file_name": "products-(4).jpg",
        "mime_type": "image\/jpeg",
        "disk": "public",
        "size": 69066,
        "manipulations": [],
        "custom_properties": {
          "uuid": "b5d3e585-68b8-4da0-a1cb-25be569e19c0",
          "generated_conversions": {
            "thumb": true,
            "icon": true
          }
        },
        "responsive_images": [],
        "order_column": 94,
        "created_at": "2020-04-15 14:26:31",
        "updated_at": "2020-04-15 14:26:31",
        "url": "https:\/\/markets.smartersvision.com\/storage\/app\/public\/94\/products-%284%29.jpg",
        "thumb": "https:\/\/markets.smartersvision.com\/storage\/app\/public\/94\/conversions\/products-%284%29-thumb.jpg",
        "icon": "https:\/\/markets.smartersvision.com\/storage\/app\/public\/94\/conversions\/products-%284%29-icon.jpg",
        "formated_size": "67.4 KB"
      }
    ]
  }
]