[
  {
    "id": 1,
    "name": "Shop Hessel and Sons",
    "description": "Nihil totam voluptatibus ab et dolores deserunt porro nihil. Cumque cumque quos aliquam libero. Porro explicabo doloremque voluptatibus similique.",
    "address": "392 Giovanny PineGorczanybury, CO 13600-6178",
    "latitude": "52.51840",
    "longitude": "13.40767",
    "phone": "674-873-6439 x071",
    "mobile": "+1 (705) 564-1321",
    "information": "Eos nam est rerum magnam sunt. Animi id fuga architecto praesentium unde corporis. Magnam sit accusamus quis rerum soluta.",
    "admin_commission": 45.72,
    "delivery_fee": 3.85,
    "delivery_range": 95.02,
    "default_tax": 7.08,
    "closed": false,
    "available_for_delivery": true,
    "created_at": "2020-04-12 16:50:58",
    "updated_at": "2020-04-15 17:06:19",
    "active": true,
    "custom_fields": [],
    "has_media": true,
    "rate": "3.0",
    "media": [
      {
        "id": 2,
        "model_type": "App\\Models\\Market",
        "model_id": 1,
        "collection_name": "image",
        "name": "markets (14)",
        "file_name": "markets-(14).jpg",
        "mime_type": "image\/jpeg",
        "disk": "public",
        "size": 95339,
        "manipulations": [],
        "custom_properties": {
          "uuid": "1e3b7bb7-fd30-4269-adcc-83d83b15d93f",
          "generated_conversions": {
            "thumb": true,
            "icon": true
          }
        },
        "responsive_images": [],
        "order_column": 2,
        "created_at": "2020-04-15 14:08:04",
        "updated_at": "2020-04-15 14:08:04",
        "url": "https:\/\/markets.smartersvision.com\/storage\/app\/public\/2\/markets-%2814%29.jpg",
        "thumb": "https:\/\/markets.smartersvision.com\/storage\/app\/public\/2\/conversions\/markets-%2814%29-thumb.jpg",
        "icon": "https:\/\/markets.smartersvision.com\/storage\/app\/public\/2\/conversions\/markets-%2814%29-icon.jpg",
        "formated_size": "93.1 KB"
      }
    ]
  },
  {
    "id": 2,
    "name": "Grocery Towne LLC",
    "description": "Minus in et iste ut iure sed. Inventore neque accusantium dolor praesentium commodi. Et nihil enim quod perferendis inventore minus ratione. Doloribus quam commodi perferendis quia amet.",
    "address": "537 Batz ForgesGibsonburgh, DE 74012",
    "latitude": "40.2634",
    "longitude": "-3.712133",
    "phone": "307.782.2121 x34984",
    "mobile": "+1-352-363-0087",
    "information": "Et officia aspernatur est et voluptas. Voluptatum rerum cum exercitationem aut non sit nulla. Asperiores amet reprehenderit est.",
    "admin_commission": 40.38,
    "delivery_fee": 1.04,
    "delivery_range": 99.95,
    "default_tax": 13.88,
    "closed": false,
    "available_for_delivery": false,
    "created_at": "2020-04-12 16:50:58",
    "updated_at": "2020-04-15 14:08:20",
    "active": true,
    "custom_fields": [],
    "has_media": true,
    "rate": "3.3",
    "media": [
      {
        "id": 4,
        "model_type": "App\\Models\\Market",
        "model_id": 2,
        "collection_name": "image",
        "name": "markets (6)",
        "file_name": "markets-(6).jpg",
        "mime_type": "image\/jpeg",
        "disk": "public",
        "size": 1261661,
        "manipulations": [],
        "custom_properties": {
          "uuid": "1861f47e-3e7d-4ca1-9011-abcad0cac994",
          "generated_conversions": {
            "thumb": true,
            "icon": true
          }
        },
        "responsive_images": [],
        "order_column": 4,
        "created_at": "2020-04-15 14:08:20",
        "updated_at": "2020-04-15 14:08:20",
        "url": "https:\/\/markets.smartersvision.com\/storage\/app\/public\/4\/markets-%286%29.jpg",
        "thumb": "https:\/\/markets.smartersvision.com\/storage\/app\/public\/4\/conversions\/markets-%286%29-thumb.jpg",
        "icon": "https:\/\/markets.smartersvision.com\/storage\/app\/public\/4\/conversions\/markets-%286%29-icon.jpg",
        "formated_size": "1.2 MB"
      }
    ]
  },
  {
    "id": 3,
    "name": "Grocery Marquardt LLC",
    "description": "Quia soluta eum nostrum nihil in. Magnam maiores nesciunt unde. Itaque omnis inventore est omnis.",
    "address": "5692 Johns BrookPort Casandrabury, CA 52751-4379",
    "latitude": "52.5185037815",
    "longitude": "13.40876789731",
    "phone": "1-831-919-4594 x9486",
    "mobile": "363-942-7301 x0341",
    "information": "Qui voluptatibus doloremque beatae tempora quia reiciendis. Nam et quas eos perspiciatis eos aut. Placeat fugiat vel in ut sed blanditiis laborum veniam.",
    "admin_commission": 45.23,
    "delivery_fee": 4.49,
    "delivery_range": 9996.12,
    "default_tax": 8.06,
    "closed": false,
    "available_for_delivery": true,
    "created_at": "2020-04-12 16:50:59",
    "updated_at": "2021-04-12 08:52:35",
    "active": true,
    "custom_fields": [],
    "has_media": true,
    "rate": "2.0",
    "media": [
      {
        "id": 6,
        "model_type": "App\\Models\\Market",
        "model_id": 3,
        "collection_name": "image",
        "name": "markets (15)",
        "file_name": "markets-(15).jpg",
        "mime_type": "image\/jpeg",
        "disk": "public",
        "size": 256512,
        "manipulations": [],
        "custom_properties": {
          "uuid": "c9085b63-0122-4ed6-b220-7df6395fbf22",
          "generated_conversions": {
            "thumb": true,
            "icon": true
          }
        },
        "responsive_images": [],
        "order_column": 6,
        "created_at": "2020-04-15 14:08:30",
        "updated_at": "2020-04-15 14:08:30",
        "url": "https:\/\/markets.smartersvision.com\/storage\/app\/public\/6\/markets-%2815%29.jpg",
        "thumb": "https:\/\/markets.smartersvision.com\/storage\/app\/public\/6\/conversions\/markets-%2815%29-thumb.jpg",
        "icon": "https:\/\/markets.smartersvision.com\/storage\/app\/public\/6\/conversions\/markets-%2815%29-icon.jpg",
        "formated_size": "250.5 KB"
      }
    ]
  },
  {
    "id": 5,
    "name": "Shop Gleichner and Sons",
    "description": "Eveniet nobis optio et ut illo facilis fugiat. Omnis voluptatem eligendi quos ut quidem vero excepturi. Qui velit dolorem dolorum maiores.",
    "address": "7414 Ward IslandNew Olaf, CO 18119",
    "latitude": "52.518703907815",
    "longitude": "13.409577689731",
    "phone": "+1-882-206-0154",
    "mobile": "(295) 475-9585 x55036",
    "information": "Maxime ipsam consequuntur nam culpa. Corporis esse unde id fugit. Eaque aut ex est placeat harum consequatur quo.",
    "admin_commission": 34.85,
    "delivery_fee": 6.5,
    "delivery_range": 12.77,
    "default_tax": 5.8,
    "closed": false,
    "available_for_delivery": true,
    "created_at": "2020-04-12 16:50:59",
    "updated_at": "2020-04-15 17:06:45",
    "active": true,
    "custom_fields": [],
    "has_media": true,
    "rate": null,
    "media": [
      {
        "id": 10,
        "model_type": "App\\Models\\Market",
        "model_id": 5,
        "collection_name": "image",
        "name": "markets (25)",
        "file_name": "markets-(25).jpg",
        "mime_type": "image\/jpeg",
        "disk": "public",
        "size": 703561,
        "manipulations": [],
        "custom_properties": {
          "uuid": "f8bae2ce-8ba1-4492-b0b9-3957676a2dfb",
          "generated_conversions": {
            "thumb": true,
            "icon": true
          }
        },
        "responsive_images": [],
        "order_column": 10,
        "created_at": "2020-04-15 14:09:04",
        "updated_at": "2020-04-15 14:09:04",
        "url": "https:\/\/markets.smartersvision.com\/storage\/app\/public\/10\/markets-%2825%29.jpg",
        "thumb": "https:\/\/markets.smartersvision.com\/storage\/app\/public\/10\/conversions\/markets-%2825%29-thumb.jpg",
        "icon": "https:\/\/markets.smartersvision.com\/storage\/app\/public\/10\/conversions\/markets-%2825%29-icon.jpg",
        "formated_size": "687.1 KB"
      }
    ]
  },
  {
    "id": 6,
    "name": "Furniture Brakus Inc",
    "description": "Quos fuga autem tenetur. Dignissimos deleniti et laudantium laudantium. Aut veniam quis fuga illum quam exercitationem veniam sunt.",
    "address": "9469 Roslyn Drive Apt. 119Berryberg, WV 70819",
    "latitude": "40.263225079024",
    "longitude": "-3.712365627789",
    "phone": "(272) 925-1675",
    "mobile": "893-382-9663 x07822",
    "information": "Nulla maiores ut dolorem quisquam sed aut. Ut quod earum quo et assumenda ut quaerat aut. In est laborum ipsa ipsum commodi non.",
    "admin_commission": 33.94,
    "delivery_fee": 5.93,
    "delivery_range": 61.05,
    "default_tax": 9.8,
    "closed": false,
    "available_for_delivery": true,
    "created_at": "2020-04-12 16:50:59",
    "updated_at": "2020-04-15 17:06:27",
    "active": true,
    "custom_fields": [],
    "has_media": true,
    "rate": "3.8",
    "media": [
      {
        "id": 12,
        "model_type": "App\\Models\\Market",
        "model_id": 6,
        "collection_name": "image",
        "name": "markets (17)",
        "file_name": "markets-(17).jpg",
        "mime_type": "image\/jpeg",
        "disk": "public",
        "size": 197114,
        "manipulations": [],
        "custom_properties": {
          "uuid": "1c2c3e66-a931-4c4b-8fe8-8d226c2ac2de",
          "generated_conversions": {
            "thumb": true,
            "icon": true
          }
        },
        "responsive_images": [],
        "order_column": 12,
        "created_at": "2020-04-15 14:09:19",
        "updated_at": "2020-04-15 14:09:19",
        "url": "https:\/\/markets.smartersvision.com\/storage\/app\/public\/12\/markets-%2817%29.jpg",
        "thumb": "https:\/\/markets.smartersvision.com\/storage\/app\/public\/12\/conversions\/markets-%2817%29-thumb.jpg",
        "icon": "https:\/\/markets.smartersvision.com\/storage\/app\/public\/12\/conversions\/markets-%2817%29-icon.jpg",
        "formated_size": "192.5 KB"
      }
    ]
  },
  {
    "id": 7,
    "name": "Market Schroeder, Metz and Torphy",
    "description": "Necessitatibus dolorem nihil inventore sed in est corporis sint. Est quo occaecati illum. Ratione reiciendis sed assumenda nesciunt minus.",
    "address": "395 Stefan Field Suite 965Westland, NY 90647-0835",
    "latitude": "52.518803907815",
    "longitude": "13.407877689731",
    "phone": "(589) 428-1103",
    "mobile": "(342) 650-1700",
    "information": "Repellat ut provident molestiae sequi illum non. Officiis quam hic ut assumenda enim et necessitatibus. Quam accusamus cupiditate ipsam corrupti quibusdam tenetur magnam.",
    "admin_commission": 36.48,
    "delivery_fee": 8.71,
    "delivery_range": 69.55,
    "default_tax": 25.62,
    "closed": false,
    "available_for_delivery": false,
    "created_at": "2020-04-12 16:50:59",
    "updated_at": "2020-04-15 14:09:32",
    "active": true,
    "custom_fields": [],
    "has_media": true,
    "rate": "1.0",
    "media": [
      {
        "id": 14,
        "model_type": "App\\Models\\Market",
        "model_id": 7,
        "collection_name": "image",
        "name": "markets (5)",
        "file_name": "markets-(5).jpg",
        "mime_type": "image\/jpeg",
        "disk": "public",
        "size": 250314,
        "manipulations": [],
        "custom_properties": {
          "uuid": "547bf43e-85bb-459d-88c0-07701654df66",
          "generated_conversions": {
            "thumb": true,
            "icon": true
          }
        },
        "responsive_images": [],
        "order_column": 14,
        "created_at": "2020-04-15 14:09:32",
        "updated_at": "2020-04-15 14:09:32",
        "url": "https:\/\/markets.smartersvision.com\/storage\/app\/public\/14\/markets-%285%29.jpg",
        "thumb": "https:\/\/markets.smartersvision.com\/storage\/app\/public\/14\/conversions\/markets-%285%29-thumb.jpg",
        "icon": "https:\/\/markets.smartersvision.com\/storage\/app\/public\/14\/conversions\/markets-%285%29-icon.jpg",
        "formated_size": "244.4 KB"
      }
    ]
  }
]